<?xml version="1.0" encoding="UTF-8" standalone="no"?>
<svg
        width="32"
        height="32"
        fill="currentColor"
        class="bi bi-usb-drive"
        viewBox="0 0 32 32"
        version="1.1"
        id="svg4"
        sodipodi:docname="usb-drive.svg"
        xml:space="preserve"
        inkscape:version="1.2.1 (9c6d41e410, 2022-07-14)"
        xmlns:inkscape="http://www.inkscape.org/namespaces/inkscape"
        xmlns:sodipodi="http://sodipodi.sourceforge.net/DTD/sodipodi-0.dtd"
        xmlns:xlink="http://www.w3.org/1999/xlink"
        xmlns="http://www.w3.org/2000/svg"
><defs
     id="defs8"><linearGradient
       inkscape:collect="always"
       id="linearGradient4621"><stop
         style="stop-color:#ff8b00;stop-opacity:1;"
         offset="0"
         id="stop4617" /><stop
         style="stop-color:#f4ff00;stop-opacity:1;"
         offset="1"
         id="stop4619" /></linearGradient><linearGradient
       inkscape:collect="always"
       id="linearGradient3160"><stop
         style="stop-color:#fe7d07;stop-opacity:1;"
         offset="0"
         id="stop3156" /><stop
         style="stop-color:#fac200;stop-opacity:1;"
         offset="1"
         id="stop3158" /></linearGradient><linearGradient
       inkscape:collect="always"
       id="linearGradient2243"><stop
         style="stop-color:#fbb103;stop-opacity:1;"
         offset="0"
         id="stop2239" /><stop
         style="stop-color:#fac901;stop-opacity:1;"
         offset="1"
         id="stop2241" /></linearGradient><linearGradient
       inkscape:collect="always"
       id="linearGradient1903"><stop
         style="stop-color:#ff5d0a;stop-opacity:1;"
         offset="0"
         id="stop1899" /><stop
         style="stop-color:#fad300;stop-opacity:1;"
         offset="1"
         id="stop1901" /></linearGradient><linearGradient
       inkscape:collect="always"
       xlink:href="#linearGradient1903"
       id="linearGradient1905"
       x1="-2.323149"
       y1="-33.599964"
       x2="18.513472"
       y2="-12.987872"
       gradientUnits="userSpaceOnUse"
       gradientTransform="matrix(0.88044478,0,0,0.88044478,8.692812,36.955462)" /><linearGradient
       inkscape:collect="always"
       xlink:href="#linearGradient2243"
       id="linearGradient2245"
       x1="36.662048"
       y1="5.8889251"
       x2="46.491745"
       y2="20.636034"
       gradientUnits="userSpaceOnUse" /><linearGradient
       inkscape:collect="always"
       xlink:href="#linearGradient3160"
       id="linearGradient2249"
       gradientUnits="userSpaceOnUse"
       x1="39.675404"
       y1="6.3076611"
       x2="45.481052"
       y2="20.66305" /><linearGradient
       inkscape:collect="always"
       xlink:href="#linearGradient4621"
       id="linearGradient4623"
       x1="15.17638"
       y1="24.697735"
       x2="20.143217"
       y2="7.5432758"
       gradientUnits="userSpaceOnUse"
       gradientTransform="matrix(1.2686709,0,0,1.2686709,-4.2956566,-4.2987354)" /><linearGradient
       inkscape:collect="always"
       xlink:href="#linearGradient1903"
       id="linearGradient4650"
       gradientUnits="userSpaceOnUse"
       gradientTransform="matrix(0.88044478,0,0,0.88044478,8.692812,36.955462)"
       x1="-2.323149"
       y1="-33.599964"
       x2="18.513472"
       y2="-12.987872" /></defs><sodipodi:namedview
     id="namedview6"
     pagecolor="#ffffff"
     bordercolor="#000000"
     borderopacity="0.25"
     inkscape:showpageshadow="2"
     inkscape:pageopacity="0.0"
     inkscape:pagecheckerboard="0"
     inkscape:deskcolor="#d1d1d1"
     showgrid="false"
     inkscape:zoom="11.313709"
     inkscape:cx="2.032932"
     inkscape:cy="21.831922"
     inkscape:window-width="1366"
     inkscape:window-height="740"
     inkscape:window-x="0"
     inkscape:window-y="0"
     inkscape:window-maximized="1"
     inkscape:current-layer="svg4" /><path
     d="m 12.831401,6.4849678 a 0.63433548,0.63433548 0 0 1 0.634336,-0.6343355 h 5.074683 a 0.63433548,0.63433548 0 0 1 0.634337,0.6343355 v 5.0746842 h -6.343356 z m 1.268671,0.6343354 v 1.268671 h 1.268672 v -1.268671 z m 2.537342,0 v 1.268671 h 1.268671 v -1.268671 z m -3.806013,5.0746838 a 1.2686709,1.2686709 0 0 0 -1.26867,1.268671 v 10.783703 a 1.9030064,1.9030064 0 0 0 1.903006,1.903007 h 5.074683 a 1.9030064,1.9030064 0 0 0 1.903007,-1.903007 V 13.462658 a 1.2686709,1.2686709 0 0 0 -1.26867,-1.268671 z m 0,1.268671 h 6.343356 v 10.783703 a 0.63433548,0.63433548 0 0 1 -0.634337,0.634335 h -5.074683 a 0.63433548,0.63433548 0 0 1 -0.634336,-0.634335 z"
     id="path2"
     inkscape:label="USB"
     style="fill:url(#linearGradient4623);fill-opacity:1;stroke-width:1.26867"
     sodipodi:insensitive="true" /><g
     id="g4615"
     inkscape:label="Arrows"
     style="display:inline"
     transform="matrix(1.1231802,0,0,1.1231802,-1.9678049,-1.9708837)"
     sodipodi:insensitive="true"><path
       id="path2119"
       style="display:inline;fill:none;stroke:url(#linearGradient4650);stroke-width:2.11307"
       d="M 4.7434836,15.059958 A 11.2957,11.2957 0 0 1 16,4.7043002 11.2957,11.2957 0 0 1 27.256516,15.059958" /><path
       id="path2115"
       style="display:inline;fill:none;stroke:url(#linearGradient1905);stroke-width:2.11307"
       d="M 27.256516,16.940042 A 11.2957,11.2957 0 0 1 16,27.2957 11.2957,11.2957 0 0 1 4.7434836,16.940042" /><path
       sodipodi:type="star"
       style="display:inline;fill:url(#linearGradient2245);fill-opacity:1;stroke:none;stroke-width:1.6;stroke-dasharray:none;stroke-opacity:1"
       id="path2206"
       inkscape:flatsided="false"
       sodipodi:sides="3"
       sodipodi:cx="41.44072"
       sodipodi:cy="11.785658"
       sodipodi:r1="6.664084"
       sodipodi:r2="3.332042"
       sodipodi:arg1="1.5644985"
       sodipodi:arg2="2.611696"
       inkscape:rounded="0"
       inkscape:randomized="0"
       d="M 41.482689,18.44961 38.565636,13.469819 35.648584,8.4900282 41.419735,8.453682 47.190887,8.4173358 44.336788,13.433473 Z"
       inkscape:transform-center-x="0.16091035"
       inkscape:transform-center-y="0.44565707"
       transform="matrix(0.35143881,-0.04607933,0.04607933,0.35143881,12.094396,12.36887)" /><path
       sodipodi:type="star"
       style="display:inline;fill:url(#linearGradient2249);fill-opacity:1;stroke:none;stroke-width:1.6;stroke-dasharray:none;stroke-opacity:1"
       id="path2247"
       inkscape:flatsided="false"
       sodipodi:sides="3"
       sodipodi:cx="41.44072"
       sodipodi:cy="11.785658"
       sodipodi:r1="6.664084"
       sodipodi:r2="3.332042"
       sodipodi:arg1="1.5644985"
       sodipodi:arg2="2.611696"
       inkscape:rounded="0"
       inkscape:randomized="0"
       d="M 41.482689,18.44961 38.565636,13.469819 35.648584,8.4900282 41.419735,8.453682 47.190887,8.4173358 44.336788,13.433473 Z"
       inkscape:transform-center-x="-0.1609108"
       inkscape:transform-center-y="-0.44565734"
       transform="matrix(-0.35143881,0.04607933,-0.04607933,-0.35143881,19.855616,19.717975)" /></g></svg>
